 ________________________________________
/            I am a cow!                 \
\         Nice to meet you               /
 ----------------------------------------
        \   ^__^
         \  (oo)\_______
            (__)\       )\/\
                ||----w |
                ||     ||
